{"count":4,"page":1,"first":1,"last":2,"hits":2,"carrier":0,"pageCount":2,"Items":[{"Item":{"title":"WPS Office 2 Standard 2026","titleKana":"WPS Office 2 Standard 2026","os":"WIN","label":"キングソフト","jan":"4562374136885","makerCode":"WPS2-STD2-PKG-PG-1","itemCaption":"WordやExcel、PowerPointとの高い互換性を有する互換Officeソフト「WPS Office」 1ユーザー2台のPCで使用できる永続版ライセンス\n・WordやExcel、PowerPointとの高い互換性を有する互換Officeソフト ＜優れたコストパフォーマンス＞ ・更新費用無しの永続版 \n・1ユーザー2台のPCで使用可能 ＜高い互換性＞\n・Microsoft Officeのファイル形式を変える事なく作成、編集、保存 ・Microsoft Officeと同じ日本語フォント11書体(29種類)を搭載 ＜Standard 2026の特長＞\n・ユニバーサルデザインフォントや筆系フォントなど7書体の日本語フォントを搭載 ・PDFファイル形式での保存(出力)に対応\n・PDFファイルの結合・分割が可能","salesDate":"2025年08月29日","itemPrice":5989,"listPrice":0,"discountRate":0,"discountPrice":0,"itemUrl":"https://books.rakuten.co.jp/rb/18339698/","affiliateUrl":"","smallImageUrl":"https://thumbnail.image.rakuten.co.jp/@0_mall/book/cabinet/6885/4562374136885.jpg?_ex=64x64","mediumImageUrl":"https://thumbnail.image.rakuten.co.jp/@0_mall/book/cabinet/6885/4562374136885.jpg?_ex=120x120","largeImageUrl":"https://thumbnail.image.rakuten.co.jp/@0_mall/book/cabinet/6885/4562374136885.jpg?_ex=200x200","availability":"1","postageFlag":2,"limitedFlag":0,"reviewCount":1,"reviewAverage":"4.0","booksGenreId":"004319003006"}},{"Item":{"title":"WPS Office 2 Personal 2026","titleKana":"WPS Office 2 Personal 2026","os":"WIN","label":"キングソフト","jan":"4562374136267","makerCode":"WPS2-PSL2-PKG-PG","itemCaption":"WordやExcelとの高い互換性を有する互換Officeソフト「WPS Office」 1ユーザー2台のPCで使用できる永続版ライセンス\n・WordやExcelとの高い互換性を有する互換Officeソフト ＜優れたコストパフォーマンス＞ ・更新費用無しの永続版\n・1ユーザー2台のPCで使用可能 ＜高い互換性＞\n・Microsoft Officeのファイル形式を変える事なく作成、編集、保存\n・Microsoft Officeと同じ日本語フォント11書体(29種類)を搭載 ＜Personal 2026シリーズの特長＞\n・ユニバーサルデザインフォントや筆系フォントなど7書体の日本語フォントを搭載 ・PDFファイル形式での保存(出力)に対応 ・PDFファイルの結合・分割が可能","salesDate":"2025年07月28日","itemPrice":4489,"listPrice":0,"discountRate":0,"discountPrice":0,"itemUrl":"https://books.rakuten.co.jp/rb/18318597/","affiliateUrl":"","smallImageUrl":"https://thumbnail.image.rakuten.co.jp/@0_mall/book/cabinet/noimage_01.gif?_ex=64x64","mediumImageUrl":"https://thumbnail.image.rakuten.co.jp/@0_mall/book/cabinet/noimage_01.gif?_ex=120x120","largeImageUrl":"https://thumbnail.image.rakuten.co.jp/@0_mall/book/cabinet/noimage_01.gif?_ex=200x200","availability":"1","postageFlag":2,"limitedFlag":0,"reviewCount":2,"reviewAverage":"3.0","booksGenreId":"004319003006"}}],"GenreInformation":[]}