{"count":12,"page":1,"first":1,"last":2,"hits":2,"carrier":0,"pageCount":6,"Items":[{"Item":{"title":"「君の名は。」DVDスタンダード・エディション","titleKana":"キミノナハ スタンダード エディション","artistName":"神木隆之介/上白石萌音/成田凌/悠木碧/島崎信長/石川界人/谷花音/長澤まさみ/新海誠","artistNameKana":"カミキリュウノスケ/カミシライシモネ/ナリタリョウ/ユウキアオイ/シマザキノブナガ/イシカワカイト/タニカノン/ナガサワマサミ/シンカイマコト","label":"東宝(株)","jan":"4988104107633","makerCode":"TDV-27263D","itemCaption":"この奇跡の物語に、世界中が恋をした\n\n＜収録内容＞\n【Disc】：DVD1枚\n・画面サイズ：16:9 ワイドスクリーン\n・音声：5.1chドルビーデジタル/2.0ch ドルビーデジタル\n・字幕：日本語字幕/英語字幕/中国語字幕/英語主題歌版用字幕\n\n　▽映像特典\n●プロモーション映像集（特報・予告・TVスポットなど）\n●公開記念特番「新海誠・この才能に日本中が恋をする」（約30分）\n●英語主題歌版本編\n●新海誠監督フィルモグラフィ\n※収録内容は変更となる場合がございます。","salesDate":"2017年07月26日","itemPrice":3912,"listPrice":0,"discountRate":0,"discountPrice":0,"itemUrl":"https://books.rakuten.co.jp/rb/14894422/","affiliateUrl":"","smallImageUrl":"https://thumbnail.image.rakuten.co.jp/@0_mall/book/cabinet/7633/4988104107633_20.jpg?_ex=64x64","mediumImageUrl":"https://thumbnail.image.rakuten.co.jp/@0_mall/book/cabinet/7633/4988104107633_20.jpg?_ex=120x120","largeImageUrl":"https://thumbnail.image.rakuten.co.jp/@0_mall/book/cabinet/7633/4988104107633_20.jpg?_ex=200x200","availability":"1","postageFlag":2,"limitedFlag":0,"reviewCount":193,"reviewAverage":"4.68","booksGenreId":"003206002005/003206002004/003206002002"}},{"Item":{"title":"「君の名は。」Blu-rayスタンダード・エディション【Blu-ray】","titleKana":"キミノナハ スタンダード エディション","artistName":"神木隆之介/上白石萌音/成田凌/悠木碧/島崎信長/石川界人/谷花音/長澤まさみ/新海誠","artistNameKana":"カミキリュウノスケ/カミシライシモネ/ナリタリョウ/ユウキアオイ/シマザキノブナガ/イシカワカイト/タニカノン/ナガサワマサミ/シンカイマコト","label":"東宝(株)","jan":"4988104107626","makerCode":"TBR-27262D","itemCaption":"この奇跡の物語に、世界中が恋をした\n\n＜収録内容＞\n【Disc】：Blu-rayDisc Video1枚\n・画面サイズ：1080p High Definition/16:9 ワイドスクリーン\n・音声：5.1ch DTS-HD Master Audio/2.0ch DTS-HD Master Audio\n・字幕：日本語字幕/英語字幕/中国語字幕/英語主題歌版用字幕\n\n　▽映像特典\n●映画公開記念特番「新海誠・この才能に日本中が恋をする」\n神木隆之介が、新海誠監督＆本作を誰よりも熱く徹底解説！\n更に、豪華キャストによる濃密トークなど秘蔵映像が満載。\n\n●英語主題歌版本編\n北米公開を記念し、RADWIMPS野田洋次郎が新たに英語詞を書き下ろした英語主題歌を使用し、セリフに英語字幕の付いた本編\n\n●プロモーション映像集（特報・予告・TVスポットなど）\n\n●新海誠監督フィルモグラフィ\n新海誠監督がこれまで手掛けた作品をまとめた映像\n\n※収録内容は変更となる場合がございます。","salesDate":"2017年07月26日","itemPrice":4286,"listPrice":0,"discountRate":0,"discountPrice":0,"itemUrl":"https://books.rakuten.co.jp/rb/14894421/","affiliateUrl":"","smallImageUrl":"https://thumbnail.image.rakuten.co.jp/@0_mall/book/cabinet/7626/4988104107626_20.jpg?_ex=64x64","mediumImageUrl":"https://thumbnail.image.rakuten.co.jp/@0_mall/book/cabinet/7626/4988104107626_20.jpg?_ex=120x120","largeImageUrl":"https://thumbnail.image.rakuten.co.jp/@0_mall/book/cabinet/7626/4988104107626_20.jpg?_ex=200x200","availability":"1","postageFlag":2,"limitedFlag":0,"reviewCount":91,"reviewAverage":"4.71","booksGenreId":"003215007/003206002005/003206002004/003206002002"}}],"GenreInformation":[]}