{"count":10,"page":1,"first":1,"last":2,"hits":2,"carrier":0,"pageCount":5,"Items":[{"Item":{"title":"【楽天ブックス限定配送BOX】【楽天ブックス限定先着特典】THE BOOK for,【完全生産限定盤 CD＋付属品】(特製バインダー用オリジナルインデックス)","titleKana":"ザ ブック フォー","artistName":"YOASOBI","artistNameKana":"ヨアソビ","label":"(株)ソニー・ミュージックエンタテインメント","size":"1","jan":"2100014997278","makerCode":"XSCL-136/7","itemCaption":"YOASOBIではお馴染みとなった特製バインダー付きEPの4作目をリリース！\n完全生産限定盤の本作は、過去作と同様にCDと特製バインダーの仕様となっている。","playList":"","salesDate":"2026年06月26日","itemPrice":6600,"listPrice":0,"discountRate":0,"discountPrice":0,"itemUrl":"https://books.rakuten.co.jp/rb/18639060/","affiliateUrl":"","smallImageUrl":"https://thumbnail.image.rakuten.co.jp/@0_mall/book/cabinet/7278/2100014997278_1_2.jpg?_ex=64x64","mediumImageUrl":"https://thumbnail.image.rakuten.co.jp/@0_mall/book/cabinet/7278/2100014997278_1_2.jpg?_ex=120x120","largeImageUrl":"https://thumbnail.image.rakuten.co.jp/@0_mall/book/cabinet/7278/2100014997278_1_2.jpg?_ex=200x200","availability":"5","postageFlag":2,"limitedFlag":1,"reviewCount":0,"reviewAverage":"0.0","booksGenreId":"002101001"}},{"Item":{"title":"【楽天ブックス限定先着特典】アドレナ/BABY (完全生産限定盤)(オリジナルクリアポーチ（YOASOBIロゴ絵柄）)","titleKana":"アドレナ ベイビー","artistName":"YOASOBI","artistNameKana":"ヨアソビ","label":"(株)ソニー・ミュージックエンタテインメント","size":"2","jan":"4573623373104","makerCode":"XSCL-131/2","itemCaption":"2026年1月クールTVアニメ『花ざかりの君たちへ』OP＆EDテーマ\n\n2026年1月より放送開始となるTVアニメ『花ざかりの君たちへ』のオープニングテーマ＆エンディングテーマをYOASOBIが担当。\nそのオープニングテーマ「アドレナ」とエンディングテーマ「BABY」を収録した完全生産限定盤シングルCD。\n\n『花ざかりの君たちへ』は、1996年から2004年まで『花とゆめ』（白泉社）で連載された全23巻の少女漫画で、シリーズ累計1,700万部を突破。\n憧れの佐野泉に会うため、性別を偽って男子校へ転入した芦屋瑞稀を描く学園ストーリーは、日本をはじめアジア各地でドラマ化され、連載終了から20年を経た今も根強い人気を誇っている。\n原作ヒロインの”瑞稀”一面に描いたアートボードが特徴的なCDパッケージに仕上がっている。さらに、楽曲「アドレナ」、「BABY」の両原作小説も収録。","playList":"アドレナ###BABY###ADRENA －「アドレナ」English Version －###BABY － English Version －###アドレナ － Anime Edit －###BABY － Anime Edit －###アドレナ － Instrumental －###BABY － Instrumental －","salesDate":"2026年03月04日","itemPrice":4400,"listPrice":0,"discountRate":0,"discountPrice":0,"itemUrl":"https://books.rakuten.co.jp/rb/18486791/","affiliateUrl":"","smallImageUrl":"https://thumbnail.image.rakuten.co.jp/@0_mall/book/cabinet/3104/4573623373104.jpg?_ex=64x64","mediumImageUrl":"https://thumbnail.image.rakuten.co.jp/@0_mall/book/cabinet/3104/4573623373104.jpg?_ex=120x120","largeImageUrl":"https://thumbnail.image.rakuten.co.jp/@0_mall/book/cabinet/3104/4573623373104.jpg?_ex=200x200","availability":"1","postageFlag":2,"limitedFlag":1,"reviewCount":2,"reviewAverage":"4.5","booksGenreId":"002101001"}}],"GenreInformation":[]}