{"count":21,"page":1,"first":1,"last":2,"hits":2,"carrier":0,"pageCount":11,"Items":[{"Item":{"title":"ゼルダの伝説　ティアーズ オブ ザ キングダム","titleKana":"ゼルダのデンセツ　ティアーズ オブ ザ キングダム","hardware":"Nintendo Switch","label":"任天堂","jan":"4902370550979","makerCode":"HAC-P-AXN7A","itemCaption":"果てなき冒険は、大空へ広がる。\n『ゼルダの伝説　ブレス オブ ザ ワイルド』続編が登場。\n\nどこまでも続く広大な「大地」、そしてはるか雲の上の「大空」まで広がった世界で、どこへ行くのも、何をするのもあなた次第です。空を翔けめぐり、不思議な空島を探索するのか？リンクの手にした新たな力で、ハイラルの異変に立ち向かうのか？あなただけの果てなき冒険が、再び始まります。\n\n\n&copy; Nintendo","salesDate":"2023年05月12日","itemPrice":6969,"listPrice":0,"discountRate":0,"discountPrice":0,"itemUrl":"https://books.rakuten.co.jp/rb/17426878/","affiliateUrl":"","smallImageUrl":"https://thumbnail.image.rakuten.co.jp/@0_mall/book/cabinet/0979/4902370550979.jpg?_ex=64x64","mediumImageUrl":"https://thumbnail.image.rakuten.co.jp/@0_mall/book/cabinet/0979/4902370550979.jpg?_ex=120x120","largeImageUrl":"https://thumbnail.image.rakuten.co.jp/@0_mall/book/cabinet/0979/4902370550979.jpg?_ex=200x200","availability":"1","postageFlag":2,"limitedFlag":0,"reviewCount":611,"reviewAverage":"4.57","booksGenreId":"006514006001"}},{"Item":{"title":"amiibo ミネルゴーレム【ティアーズ オブ ザ キングダム】（ゼルダの伝説シリーズ）","titleKana":"","hardware":"Nintendo Switch 2","label":"任天堂","jan":"4902370552980","makerCode":"NVL-C-AKBE","itemCaption":"&copy; Nintendo","salesDate":"2026年09月17日","itemPrice":4979,"listPrice":0,"discountRate":0,"discountPrice":0,"itemUrl":"https://books.rakuten.co.jp/rb/18633672/","affiliateUrl":"","smallImageUrl":"https://thumbnail.image.rakuten.co.jp/@0_mall/book/cabinet/2980/4902370552980.jpg?_ex=64x64","mediumImageUrl":"https://thumbnail.image.rakuten.co.jp/@0_mall/book/cabinet/2980/4902370552980.jpg?_ex=120x120","largeImageUrl":"https://thumbnail.image.rakuten.co.jp/@0_mall/book/cabinet/2980/4902370552980.jpg?_ex=200x200","availability":"5","postageFlag":2,"limitedFlag":0,"reviewCount":0,"reviewAverage":"0.0","booksGenreId":"006519002"}}],"GenreInformation":[]}