{"count":387,"page":1,"first":1,"last":2,"hits":2,"carrier":0,"pageCount":100,"Items":[{"Item":{"title":"夏帆","author":"村上 春樹","artistName":"","publisherName":"新潮社","label":"","isbn":"9784103534402","jan":"","hardware":"","os":"","itemCaption":"私はこの世界の出口を見つけなくてはならないーー。女性を主人公にした初の長編小説。「正直いって、君みたいな醜い相手は初めてだよ」　26歳の絵本作家、夏帆は初対面の男にいきなりこう告げられた。とびきり美しくも賢くもなく、ただ少しばかり好奇心の強い彼女は、怒りよりもショックよりも、ただ純粋に驚いた。しかしそれから彼女の周りでは、実にさまざまな奇妙な出来事が起こりはじめる。","salesDate":"2026年07月03日頃","itemPrice":2860,"listPrice":0,"discountRate":0,"discountPrice":0,"itemUrl":"https://books.rakuten.co.jp/rb/18611315/","affiliateUrl":"","smallImageUrl":"https://thumbnail.image.rakuten.co.jp/@0_mall/book/cabinet/4402/9784103534402.jpg?_ex=64x64","mediumImageUrl":"https://thumbnail.image.rakuten.co.jp/@0_mall/book/cabinet/4402/9784103534402.jpg?_ex=120x120","largeImageUrl":"https://thumbnail.image.rakuten.co.jp/@0_mall/book/cabinet/4402/9784103534402.jpg?_ex=200x200","chirayomiUrl":"","availability":"5","postageFlag":2,"limitedFlag":0,"reviewCount":0,"reviewAverage":"0.0","booksGenreId":"001004015/001004008007"}},{"Item":{"title":"遠い声、遠い部屋","author":"トルーマン・カポーティ/村上 春樹","artistName":"","publisherName":"新潮社","label":"","isbn":"9784102095102","jan":"","hardware":"","os":"","itemCaption":"13歳の誕生日、ジョエルのもとに手紙が届く。母を亡くした彼を生き別れた父が引き取るという。父のいる南部の古い屋敷で待っていたのは、ミス・エイミーとその従兄弟のランドルフ。アイダベルという風変わりな少女とも親しくなるが、なぜか父は姿を現さず、屋敷では奇妙なことが続き……。早熟の天才・カポーティのデビュー長編にして幻想的魅力をまとう米文学の記念碑的作品を、村上春樹が新訳。","salesDate":"2026年02月28日","itemPrice":935,"listPrice":0,"discountRate":0,"discountPrice":0,"itemUrl":"https://books.rakuten.co.jp/rb/18510193/","affiliateUrl":"","smallImageUrl":"https://thumbnail.image.rakuten.co.jp/@0_mall/book/cabinet/5102/9784102095102_1_11.jpg?_ex=64x64","mediumImageUrl":"https://thumbnail.image.rakuten.co.jp/@0_mall/book/cabinet/5102/9784102095102_1_11.jpg?_ex=120x120","largeImageUrl":"https://thumbnail.image.rakuten.co.jp/@0_mall/book/cabinet/5102/9784102095102_1_11.jpg?_ex=200x200","chirayomiUrl":"","availability":"1","postageFlag":2,"limitedFlag":0,"reviewCount":4,"reviewAverage":"3.0","booksGenreId":"001019007/001019001/001004009"}}],"GenreInformation":[]}