{"count":42,"page":1,"first":1,"last":2,"hits":2,"carrier":0,"pageCount":21,"Items":[{"Item":{"title":"吾輩は猫である改版","titleKana":"ワガハイ ワ ネコ デ アル","subTitle":"","subTitleKana":"","seriesName":"新潮文庫","seriesNameKana":"シンチョウ ブンコ","contents":"","author":"夏目漱石","authorKana":"ナツメ,ソウセキ","publisherName":"新潮社","size":"文庫","isbn":"9784101010014","itemCaption":"","salesDate":"2003年06月","itemPrice":693,"listPrice":0,"discountRate":0,"discountPrice":0,"itemUrl":"https://books.rakuten.co.jp/rb/1656073/","affiliateUrl":"","smallImageUrl":"https://thumbnail.image.rakuten.co.jp/@0_mall/book/cabinet/0014/9784101010014.jpg?_ex=64x64","mediumImageUrl":"https://thumbnail.image.rakuten.co.jp/@0_mall/book/cabinet/0014/9784101010014.jpg?_ex=120x120","largeImageUrl":"https://thumbnail.image.rakuten.co.jp/@0_mall/book/cabinet/0014/9784101010014.jpg?_ex=200x200","chirayomiUrl":"","availability":"1","postageFlag":2,"limitedFlag":0,"reviewCount":261,"reviewAverage":"3.96","booksGenreId":"001019001/001004008005"}},{"Item":{"title":"吾輩は猫である（上）　（新装版）","titleKana":"ワガハイハネコデアルジョウ シンソウバン","subTitle":"","subTitleKana":"","seriesName":"講談社青い鳥文庫","seriesNameKana":"コウダンシャアオイトリブンコ","contents":"","author":"夏目 漱石/佐野 洋子","authorKana":"ナツメ ソウセキ/サノ ヨウコ","publisherName":"講談社","size":"新書","isbn":"9784062856218","itemCaption":"中学の英語教師、珍野苦沙弥先生の家に何とか入り込んで、無事飼われることになった猫が、苦沙弥先生の家族や、家にやってくる友人を観察するお話です。　主人の家には、美学者の迷亭、理学者で先生の教え子の寒月、哲学者の独仙、詩人の東風など、風変わりな文化人たちがやってきては、役にたたないおしゃべりばかりをしているなあ、と猫は思っています。＜日本の名作　小学上級から　すべての漢字にふりがなつき＞\n\n\n　中学の英語教師、珍野苦沙弥先生の家に何とか入り込んで、無事飼われることになった猫が、苦沙弥先生の家族や、家にやってくる友人を観察するお話です。\n　主人の苦沙弥先生は、趣味は多いけれど何にもモノにならない人。家には、美学者の迷亭、理学者で先生の教え子の寒月、哲学者の独仙、詩人の東風など、風変わりな文化人たちがやってきては、役にたたないおしゃべりばかりをしているなあ、と猫は思っています。\n　ある日 近所の金田というお金持ちの女性が、寒月を自分の娘・富子と結婚させたいと言い出しました。\n　ただし、それには条件があり、寒月が博士になったら、というのです。この高慢な態度に苦沙弥先生は怒ります。\n\n＜日本の名作　小学上級から　すべての漢字にふりがなつき＞","salesDate":"2017年07月21日頃","itemPrice":814,"listPrice":0,"discountRate":0,"discountPrice":0,"itemUrl":"https://books.rakuten.co.jp/rb/14945495/","affiliateUrl":"","smallImageUrl":"https://thumbnail.image.rakuten.co.jp/@0_mall/book/cabinet/6218/9784062856218_1_6.jpg?_ex=64x64","mediumImageUrl":"https://thumbnail.image.rakuten.co.jp/@0_mall/book/cabinet/6218/9784062856218_1_6.jpg?_ex=120x120","largeImageUrl":"https://thumbnail.image.rakuten.co.jp/@0_mall/book/cabinet/6218/9784062856218_1_6.jpg?_ex=200x200","chirayomiUrl":"","availability":"1","postageFlag":2,"limitedFlag":0,"reviewCount":3,"reviewAverage":"4.67","booksGenreId":"001020004/001003002002/001003001001"}}],"GenreInformation":[]}