{"count":5,"page":1,"first":1,"last":2,"hits":2,"carrier":0,"pageCount":3,"Items":[{"Item":{"title":"NORWEGIAN WOOD:NEW COVER(A)","titleKana":"","japaneseTitle":"NORWEGIAN WOOD:NEW COVER(A)","author":"HARUKI MURAKAMI","authorKana":"","publisherName":"VINTAGE BOOKS UK","isbn":"9780099584353","itemCaption":"","salesDate":"","itemPrice":2662,"listPrice":0,"discountRate":0,"discountPrice":0,"itemUrl":"https://books.rakuten.co.jp/rb/12639941/","affiliateUrl":"","smallImageUrl":"https://thumbnail.image.rakuten.co.jp/@0_mall/book/cabinet/4353/9780099584353_1_20.jpg?_ex=64x64","mediumImageUrl":"https://thumbnail.image.rakuten.co.jp/@0_mall/book/cabinet/4353/9780099584353_1_20.jpg?_ex=120x120","largeImageUrl":"https://thumbnail.image.rakuten.co.jp/@0_mall/book/cabinet/4353/9780099584353_1_20.jpg?_ex=200x200","availability":"1","postageFlag":2,"limitedFlag":0,"reviewCount":0,"reviewAverage":"0.0","booksGenreId":"005410"}},{"Item":{"title":"Norwegian Wood","titleKana":"","japaneseTitle":"Norwegian Wood","author":"Haruki Murakami","authorKana":"","publisherName":"KNOPF","isbn":"9780375704024","itemCaption":"First American Publication \nThis stunning and elegiac novel by the author of the internationally acclaimed Wind-Up Bird Chronicle has sold over 4 million copies in Japan and is now available to American audiences for the first time. It is sure to be a literary event. \nToru, a quiet and preternaturally serious young college student in Tokyo, is devoted to Naoko, a beautiful and introspective young woman, but their mutual passion is marked by the tragic death of their best friend years before. Toru begins to adapt to campus life and the loneliness and isolation he faces there, but Naoko finds the pressures and responsibilities of life unbearable. As she retreats further into her own world, Toru finds himself reaching out to others and drawn to a fiercely independent and sexually liberated young woman. \nA poignant story of one college student's romantic coming-of-age, Norwegian Wood takes us to that distant place of a young man's first, hopeless, and heroic love.","salesDate":"2000年","itemPrice":3366,"listPrice":0,"discountRate":0,"discountPrice":0,"itemUrl":"https://books.rakuten.co.jp/rb/4221886/","affiliateUrl":"","smallImageUrl":"https://thumbnail.image.rakuten.co.jp/@0_mall/book/cabinet/4024/9780375704024_1_5.jpg?_ex=64x64","mediumImageUrl":"https://thumbnail.image.rakuten.co.jp/@0_mall/book/cabinet/4024/9780375704024_1_5.jpg?_ex=120x120","largeImageUrl":"https://thumbnail.image.rakuten.co.jp/@0_mall/book/cabinet/4024/9780375704024_1_5.jpg?_ex=200x200","availability":"6","postageFlag":2,"limitedFlag":0,"reviewCount":0,"reviewAverage":"0.0","booksGenreId":"005402002"}}],"GenreInformation":[]}