{"count":195,"page":1,"first":1,"last":2,"hits":2,"pageCount":98,"Items":[{"Item":{"title":"夏帆─The Tale of KAHO─","titleKana":"カホザテイルオブカホ","subTitle":"","seriesName":"","author":"村上春樹","authorKana":"ムラカミハルキ","publisherName":"新潮社","language":"JA","salesDate":"2026年07月03日","itemNumber":"4340008066911","koboGenreId":"101901","itemCaption":"私はこの世界の出口を見つけなくてはならないーー。女性を主人公にした初の長編小説。\n「正直いって、君みたいな醜い相手は初めてだよ」\n26歳の絵本作家、夏帆は初対面の男にいきなりこう告げられた。\nとびきり美しくも賢くもなく、ただ少しばかり好奇心の強い彼女は、怒りよりもショックよりも、ただ純粋に驚いた。\nーーこの男はいったい何を告げようとしているのだろう？\nしかしそれから彼女の周りでは、実にさまざまな奇妙な出来事が起こりはじめる。\n","itemPrice":2860,"itemUrl":"https://books.rakuten.co.jp/rk/b66cc27bec2a3efd9f9dbe132947a88b/","affiliateUrl":"","smallImageUrl":"https://thumbnail.image.rakuten.co.jp/@0_mall/rakutenkobo-ebooks/cabinet/0570/2000020430570.jpg?_ex=64x64","mediumImageUrl":"https://thumbnail.image.rakuten.co.jp/@0_mall/rakutenkobo-ebooks/cabinet/0570/2000020430570.jpg?_ex=120x120","largeImageUrl":"https://thumbnail.image.rakuten.co.jp/@0_mall/rakutenkobo-ebooks/cabinet/0570/2000020430570.jpg?_ex=200x200","reviewCount":0,"reviewAverage":"0.0","salesType":1}},{"Item":{"title":"街とその不確かな壁（上下）合本版（新潮文庫）","titleKana":"マチトソノフタシカナカベガッポンバンシンチョウブンコ","subTitle":"","seriesName":"","author":"村上春樹","authorKana":"ムラカミハルキ","publisherName":"新潮社","language":"JA","salesDate":"2025年04月23日","itemNumber":"4340008063261","koboGenreId":"101901","itemCaption":"十七歳と十六歳の夏の夕暮れ、きみは川べりに腰を下ろし、“街”について語り出すーーそれが物語の始まりだった。高い壁と望楼に囲まれた遥か遠くの謎めいた街。そこに“本当のきみ”がいるという。〈古い夢〉が並ぶ図書館、石造りの三つの橋、針のない時計台、金雀児（えにしだ）の葉、角笛と金色の獣たち。だが、その街では人々は影を持たない……村上春樹が封印してきた「物語」の扉が、いま開かれる。　※当電子版は新潮文庫版『街とその不確かな壁』上下巻をまとめた合本版です。\n","itemPrice":1925,"itemUrl":"https://books.rakuten.co.jp/rk/c205fc41769e39f9aa7fffdf7126262d/","affiliateUrl":"","smallImageUrl":"https://thumbnail.image.rakuten.co.jp/@0_mall/rakutenkobo-ebooks/cabinet/5172/2000017275172.jpg?_ex=64x64","mediumImageUrl":"https://thumbnail.image.rakuten.co.jp/@0_mall/rakutenkobo-ebooks/cabinet/5172/2000017275172.jpg?_ex=120x120","largeImageUrl":"https://thumbnail.image.rakuten.co.jp/@0_mall/rakutenkobo-ebooks/cabinet/5172/2000017275172.jpg?_ex=200x200","reviewCount":0,"reviewAverage":"0.0","salesType":0}}],"GenreInformation":[]}