{"count":12,"page":1,"first":1,"last":2,"hits":2,"carrier":0,"pageCount":6,"Items":[{"Item":{"golfCourseId":130017,"golfCourseName":"武蔵野ゴルフクラブ","golfCourseAbbr":"武蔵野GC","golfCourseNameKana":"むさしのごるふくらぶ","golfCourseCaption":"武蔵野の地形を活かした丘陵コース。全体的に日本庭園風に仕上げられた落ち着いた雰囲気を持っています。アウトは比較的フラットでティーショットの打ち易いホールが続き､インはアップダウンがあり､傾斜地からの正確なセカンドショットがスコアメイクのキーポイントとなります。クラブハウスは木造で歴史を重ねた風格を持ち､２階レストランからは奥多摩の山々､又新宿副都心が眺められます。 \n\n ◆土日祝日のご予約に関して◆\n土日祝日はゴルフ場の予約受付日が、5週間前からとなります。なおメンバー様のご予約が先になりますので、ご予約がお取りできない場合もございます。\n","address":"東京都八王子市宮下町656","latitude":35.6968147,"longitude":139.3064956,"highway":"中央自動車道八王子","golfCourseDetailUrl":"https://booking.gora.golf.rakuten.co.jp/guide/disp/c_id/130017?rafcid=wsc_g_cs_cd6ab327-25c8-42fd-87c7-75ed3cefc93a","reserveCalUrl":"https://search.gora.golf.rakuten.co.jp/cal/disp/c_id/130017?rafcid=wsc_g_cs_cd6ab327-25c8-42fd-87c7-75ed3cefc93a","ratingUrl":"https://booking.gora.golf.rakuten.co.jp/voice/detail/c_id/130017?rafcid=wsc_g_cs_cd6ab327-25c8-42fd-87c7-75ed3cefc93a","golfCourseImageUrl":"https://gora.golf.rakuten.co.jp/img/golf/130017/photo1.jpg","evaluation":3.8}},{"Item":{"golfCourseId":130007,"golfCourseName":"東京相武カントリークラブ【アコーディア・ゴルフ】","golfCourseAbbr":"東京相武CC","golfCourseNameKana":"とうきょうそうぶかんとりーくらぶ","golfCourseCaption":"※東京相武カントリークラブは、アコーディア・ゴルフが保有運営するゴルフ場です＜レストランの営業案内＞レストランの営業開始時間は以下の通りとなります。朝食をお取りの際はご注意くだいさい。平日：7時30分～　土日祝：7時～＜最寄り公共機関とゴルフ場間のクラブバス運行について＞※バス乗り場のご詳細や運航ダイヤの変更等につきましてはゴルフ場公式ホームページをご参照下さい。■行き【ＪＲみなみ野駅発、ゴルフ場行】?7:30、7:50、8:10、8:30、9：00　※所要時間約10分【京王めじろ台駅発、ゴルフ場行】?7:30、8:10、8:50　※所要時間約15分■帰り【ゴルフ場発、ＪＲみなみ野駅行】?15:00、15:30、16:00、16:30、17:00、17:30　※所要時間約10分【ゴルフ場発、京王めじろ台駅行】?15:00、15:30、16:00、16:30、17:00、17:30 ※所要時間約15分","address":"東京都八王子市大船町６２０","latitude":35.6110175,"longitude":139.3169756,"highway":"首都圏中央連絡自動車道高尾山","golfCourseDetailUrl":"https://booking.gora.golf.rakuten.co.jp/guide/disp/c_id/130007?rafcid=wsc_g_cs_cd6ab327-25c8-42fd-87c7-75ed3cefc93a","reserveCalUrl":"https://search.gora.golf.rakuten.co.jp/cal/disp/c_id/130007?rafcid=wsc_g_cs_cd6ab327-25c8-42fd-87c7-75ed3cefc93a","ratingUrl":"https://booking.gora.golf.rakuten.co.jp/voice/detail/c_id/130007?rafcid=wsc_g_cs_cd6ab327-25c8-42fd-87c7-75ed3cefc93a","golfCourseImageUrl":"https://gora.golf.rakuten.co.jp/img/golf/130007/photo1.jpg","evaluation":3.9}}]}